E:\wetransfer-af8f5b\Proiect1\Proiect1\src\main\java\controller\FindFlightsByCitysController.java
E:\wetransfer-af8f5b\Proiect1\Proiect1\src\main\java\dataAccess\CityDao.java
E:\wetransfer-af8f5b\Proiect1\Proiect1\src\main\java\dataAccess\UserDao.java
E:\wetransfer-af8f5b\Proiect1\Proiect1\src\main\java\controller\UpdateFlightController.java
E:\wetransfer-af8f5b\Proiect1\Proiect1\src\main\java\model\User.java
E:\wetransfer-af8f5b\Proiect1\Proiect1\src\main\java\controller\Logout.java
E:\wetransfer-af8f5b\Proiect1\Proiect1\src\main\java\service\FlightService.java
E:\wetransfer-af8f5b\Proiect1\Proiect1\src\main\java\controller\ViewFlightsController.java
E:\wetransfer-af8f5b\Proiect1\Proiect1\src\main\java\controller\AddFlightController.java
E:\wetransfer-af8f5b\Proiect1\Proiect1\src\main\java\dataAccess\Implementation\CityDaoImpl.java
E:\wetransfer-af8f5b\Proiect1\Proiect1\src\main\java\dataAccess\Implementation\UserDaoImpl.java
E:\wetransfer-af8f5b\Proiect1\Proiect1\src\main\java\controller\ViewFlightsClientController.java
E:\wetransfer-af8f5b\Proiect1\Proiect1\src\main\java\model\City.java
E:\wetransfer-af8f5b\Proiect1\Proiect1\src\main\java\model\Flight.java
E:\wetransfer-af8f5b\Proiect1\Proiect1\src\main\java\service\TimeApiService.java
E:\wetransfer-af8f5b\Proiect1\Proiect1\src\main\java\controller\Login.java
E:\wetransfer-af8f5b\Proiect1\Proiect1\src\main\java\controller\DeleteFlightController.java
E:\wetransfer-af8f5b\Proiect1\Proiect1\src\main\java\service\CityService.java
E:\wetransfer-af8f5b\Proiect1\Proiect1\src\main\java\service\UserService.java
E:\wetransfer-af8f5b\Proiect1\Proiect1\src\main\java\dataAccess\FlightDao.java
E:\wetransfer-af8f5b\Proiect1\Proiect1\src\main\java\dataAccess\Implementation\DaoGeneric.java
E:\wetransfer-af8f5b\Proiect1\Proiect1\src\main\java\dataAccess\Implementation\FlightDaoImpl.java
